{
    "version": 4,
    "id": 1621177736463,
    "autoColormaps": false,
    "colormap": "Grays",
    "autoImages": false,
    "image": "touw_eiffel.png",
    "plugins": [
        {
            "lens": false,
            "name": "blur_diagonal_1",
            "displayName": "Blur diagonal \\",
            "version": 0,
            "mode": "normal",
            "parameters": {
                "border_mode": {
                    "value": "Toroidal"
                }
            }
        },
        {
            "lens": false,
            "name": "oscillo_y",
            "displayName": "Oscillo vertical",
            "version": 0,
            "mode": "overlay",
            "parameters": {
                "volume_scale": {
                    "value": 0.41099999999999998
                },
                "stereo": {
                    "value": true
                },
                "connect": {
                    "value": true
                }
            }
        },
        {
            "lens": false,
            "name": "swarm",
            "displayName": "Swarm",
            "version": 0,
            "mode": "overlay"
        }
    ],
    "params3d": {
        "rotateAmount": 0.001,
        "rotateFactor": [
            -24,
            -43,
            -8
        ],
        "rotations": [
            15.245058059692383,
            -138.47874450683594,
            -13.716083526611328
        ],
        "scaleFactorCoeff": 1,
        "boundary": "sphere_wireframe"
    },
    "bandpassMin": 10,
    "bandpassMax": 245
}