{
    "version": 4,
    "id": 1622195129308,
    "autoColormaps": false,
    "colormap": "Mongo",
    "autoImages": false,
    "image": "no-planet.png",
    "plugins": [
        {
            "lens": false,
            "name": "snake_oscillo",
            "displayName": "Snake oscillo",
            "version": 0,
            "mode": "overlay",
            "parameters": {
                "volume_scale": {
                    "value": 1.0
                },
                "mode": {
                    "value": 1
                },
                "length_min": {
                    "value": 0.01
                },
                "length_max": {
                    "value": 0.080000000000000002
                },
                "spectrum_id_factor": {
                    "value": 2.0
                },
                "color_factor": {
                    "value": 3.0
                }
            }
        },
        {
            "lens": false,
            "name": "blur_cross",
            "displayName": "Blur cross",
            "version": 0,
            "mode": "normal",
            "parameters": {
                "border_mode": {
                    "value": "Toroidal"
                }
            }
        },
        {
            "lens": false,
            "name": "hurricane",
            "displayName": "Hurricane",
            "version": 0,
            "mode": "normal",
            "parameters": {
                "random_mode": {
                    "value": true
                }
            }
        }
    ],
    "params3d": {
        "rotateAmount": 0.001,
        "rotateFactor": [
            0,
            0,
            0
        ],
        "rotations": [
            0.0,
            0.0,
            0.0
        ],
        "scaleFactorCoeff": 1,
        "boundary": "none"
    },
    "bandpassMin": 10,
    "bandpassMax": 245
}