{
    "version": 4,
    "id": 1622562703123,
    "autoColormaps": false,
    "colormap": "Startup",
    "autoImages": false,
    "image": "SMILE.png",
    "plugins": [
        {
            "lens": false,
            "name": "scanline_x",
            "displayName": "Scanline X",
            "version": 0,
            "mode": "normal",
            "parameters": {
                "direction": {
                    "value": "Rightwards"
                },
                "thickness": {
                    "value": 3
                }
            }
        },
        {
            "lens": false,
            "name": "blur_light",
            "displayName": "Blur light",
            "version": 0,
            "mode": "normal",
            "parameters": {
                "border_mode": {
                    "value": "Toroidal"
                }
            }
        },
        {
            "lens": true,
            "name": "gum_y",
            "displayName": "Gum Y",
            "version": 0,
            "mode": "normal",
            "parameters": {
                "volume_scale": {
                    "value": 0.77100000000000002
                }
            }
        }
    ],
    "params3d": {
        "rotateAmount": 0.001,
        "rotateFactor": [
            0,
            0,
            0
        ],
        "rotations": [
            0.0,
            0.0,
            0.0
        ],
        "scaleFactorCoeff": 1,
        "boundary": "none"
    },
    "bandpassMin": 10,
    "bandpassMax": 245
}